<?xml version="1.0"?>
<robot name="myfirstxacro" xmlns:xacro="http://ros.org/wiki/xacro">

  <xacro:include filename="$(find urdf_gazebo)/urdf/robot.gazebo.xacro"/>

  <xacro:property name="radius" value="0.05" />
  <xacro:property name="mass_wheel" value="4" />
  <xacro:property name="mass_box" value="4" />

  <xacro:macro name="default_inertial" params="mass">
    <inertial>
            <mass value="${mass}" />
            <inertia ixx="1.0" ixy="0.0" ixz="0.0"
                     iyy="1.0" iyz="0.0" izz="1.0" />
    </inertial>
  </xacro:macro>

  <xacro:macro name="wheel">
    <visual>
      <geometry>
        <cylinder length="0.04" radius="${radius}" />
      </geometry>
      <material name="black"/>
    </visual>
    <collision>
      <geometry>
        <cylinder length="0.04" radius="${radius}" />
      </geometry>
    </collision>

    <xacro:default_inertial mass="${mass_wheel}"/>
  </xacro:macro>

  <material name="orange">
      <color rgba="1 0.3 0.1 1"/>
  </material>

  <material name="black">
      <color rgba="0 0 0 1"/>
  </material>
  
  
  <link name="base_link">
  </link>
  
  <joint name="box_joint" type="fixed">
    <parent link="base_link"/>
    <child link="box"/>
    <origin xyz="0.0 0 0.1"/>
  </joint>

  <link name="box">
    <visual>
        <origin xyz="0.0 0 0.0" rpy="0 0 0"/>
        <geometry>
            <box size="0.34 0.26 0.16"/>
        </geometry>
        <material name="orange"/>
    </visual>
    <collision>
      <origin xyz="0.0 0 0.0" rpy="0 0 0"/>
        <geometry>
          <box size="0.34 0.26 0.16"/>
        </geometry>
    </collision>
    <xacro:default_inertial mass="${mass_box}"/>
  </link>

  <joint name="box_to_box" type="fixed">
    <parent link="box"/>
    <child link="box_up"/>
    <origin xyz="0.02 0 0.12"/>
  </joint>

  <link name="box_up">
    <visual>
        <origin xyz="0.0 0 0.0" rpy="0 0 0"/>
        <geometry>
            <box size="0.17 0.26 0.08"/>
        </geometry>
        <material name="orange"/>
    </visual>
    <collision>
      <origin xyz="0.0 0 0.0" rpy="0 0 0"/>
        <geometry>
          <box size="0.17 0.26 0.08"/>
        </geometry>
    </collision>
    <xacro:default_inertial mass="${mass_box}"/>
  </link>

  <link name="back_left_wheel">
    <xacro:wheel/>
  </link>
  <joint name="back_left_wheel_joint" type="continuous">
    <parent link="box"/>
    <child link="back_left_wheel"/>
    <origin xyz="-0.14 0.15 -0.05" rpy="-${pi/2} 0 0"/>
    <axis xyz="0 0 1"/>
  </joint>


  <link name="back_right_wheel">
    <xacro:wheel/>
  </link>
  <joint name="back_right_wheel_joint" type="continuous">
    <parent link="box"/>
    <child link="back_right_wheel"/>
    <origin xyz="-0.14 -0.15 -0.05" rpy="${pi/2} 0 0"/>
    <axis xyz="0 0 -1"/>
  </joint>


  <link name="front_left_wheel">
    <xacro:wheel/>
  </link>
  <joint name="front_left_wheel_joint" type="continuous">
    <parent link="box"/>
    <child link="front_left_wheel"/>
    <origin xyz="0.14 0.15 -0.05" rpy="-${pi/2} 0 0"/>
    <axis xyz="0 0 1"/>
  </joint>


  <link name="front_right_wheel">
    <xacro:wheel/>
  </link>
  <joint name="front_right_wheel_joint" type="continuous">
    <parent link="box"/>
    <child link="front_right_wheel"/>
    <origin xyz="0.14 -0.15 -0.05" rpy="${pi/2} 0 0"/>
    <axis xyz="0 0 -1"/>
  </joint>


  <!-- Depth camera -->
  <joint name="camera_joint" type="fixed">
    <axis xyz="0 1 0" />
    <origin xyz="0.05 0 0.04" rpy="0 0 0"/>
    <parent link="box_up"/>
    <child link="camera_link"/>
  </joint>

  <link name="camera_link">
    <collision>
      <origin xyz="0 0 0" rpy="0 0 0"/>
      <geometry>
        <box size="0.05 0.05 0.05"/>
      </geometry>
    </collision>

    <visual>
      <origin xyz="0 0 0" rpy="0 0 0"/>
      <geometry>
        <box size="0.05 0.05 0.05"/>
      </geometry>
    </visual>

    <inertial>
      <mass value="1e-5" />
      <origin xyz="0 0 0" rpy="0 0 0"/>
      <inertia ixx="1e-6" ixy="0" ixz="0" iyy="1e-6" iyz="0" izz="1e-6" />
    </inertial>
  </link>


  <gazebo reference="front_right_wheel">
    <material>Gazebo/hui</material>
  </gazebo>
  <gazebo reference="back_right_wheel">
    <material>Gazebo/hui</material>
  </gazebo>
  <gazebo reference="front_left_wheel">
    <material>Gazebo/hui</material>
  </gazebo>
  <gazebo reference="back_left_wheel">
    <material>Gazebo/hui</material>
  </gazebo>
  <gazebo reference="box">
    <material>Gazebo/duffnik</material>
  </gazebo>
  <gazebo reference="box_up">
    <material>Gazebo/hui</material>
  </gazebo>

</robot>
 