<?xml version="1.0"?>

<robot name="myfirst">


	<material name="orange">
    	<color rgba="1 0.3 0.1 1"/>
	</material>

	<material name="black">
    	<color rgba="0 0 0 1"/>
	</material>
  
  
  	<link name="base_link">
  	</link>
  
  	<joint name="box_joint" type="fixed">
    	<parent link="base_link"/>
    	<child link="box"/>
    	<origin xyz="0.0 0 0.08"/>
	</joint>

	<link name="box">
    	<visual>
        	<origin xyz="0.0 0 0.0" rpy="0 0 0"/>
        	<geometry>
            	<box size="0.2 0.16 0.1"/>
        	</geometry>
        	<material name="orange"/>
    	</visual>
		<collision>
        	<origin xyz="0.0 0 0.0" rpy="0 0 0"/>
        	<geometry>
            	<box size="0.2 0.16 0.1"/>
        	</geometry>
    	</collision>
		<inertial>
			<mass value="2"/>
			<inertia ixx="1.0" ixy="0.0" ixz="0.0" iyy="1.0" iyz="0.0" izz="1.0"/>
		</inertial>
    </link>
    

    <joint name="left_wheel_joint" type="continuous">
    	<parent link="box"/>
    	<child link="left_wheel"/>
    	<origin xyz="0.0 0.08 -0.03" rpy="-${pi/2} 0 0"/>
    	<axis xyz="0 0 1"/>
	</joint>

	<link name="left_wheel">
    	<visual>
        	<geometry>
            	<cylinder length="0.04" radius="0.05" />
        	</geometry>
        	<material name="black"/>
    	</visual>
		<collision>
			<geometry>
            	<cylinder length="0.04" radius="0.05" />
        	</geometry>
		</collision>
		<inertial>
			<mass value="1"/>
			<inertia ixx="1.0" ixy="0.0" ixz="0.0" iyy="1.0" iyz="0.0" izz="1.0"/>
		</inertial>
	</link>



  	<joint name="right_wheel_joint" type="continuous">
    	<parent link="box"/>
    	<child link="right_wheel"/>
    	<origin xyz="0 -0.08 -0.03" rpy="${pi/2} 0 0"/>
    	<axis xyz="0 0 -1"/>
	</joint>

	<link name="right_wheel">
    	<visual>
        	<geometry>
            	<cylinder length="0.04" radius="0.05" />
        	</geometry>
        	<material name="black"/>
    	</visual>
		<collision>
			<geometry>
            	<cylinder length="0.04" radius="0.05" />
        	</geometry>
		</collision>
		<inertial>
			<mass value="1"/>
			<inertia ixx="1.0" ixy="0.0" ixz="0.0" iyy="1.0" iyz="0.0" izz="1.0"/>
		</inertial>
	</link>

</robot>
